Chapter 1 - Quickstart Guide • pathwayPCA
…
In this data set, the columns are individual samples, patients, tumors, cell lines, etc. The rows are the -Omic expression measures. Use the read_csv function from the readr package to import .csv files and the like. If your data has samples in the columns and -omic feature measurements in the rows, you’ll need to “tidy” the imported assay with the transpose_assay function.

assay_df <- read_csv("path_to_your_directory/your_assay.csv")
assayT_df <- transpose_assay(assay_df)
assayT_df

#> Warning: Missing column names filled in: 'X1' [1]
#> Parsed with column specification:
#> cols(
#>   .default = col_double(),
#>   X1 = col_character()
#> )
#> See spec(...) for full column specifications.
#> # A tibble: 36 x 18
#>    Sample    SOAT1   LSS  SQLE   EBP CYP51A1 DHCR7 CYP27B1 DHCR24 HSD17B7
#>    <chr>     <dbl> <dbl> <dbl> <dbl>   <dbl> <dbl>   <dbl>  <dbl>   <dbl>
#>  1 T21101311  5.37  9.77  7.74  4.68    8.27  8.32    6.78   4.70    7.63
#>  2 T21101312  5.52  9.78  8.06  5.12    8.21  8.33    6.47   5.06    7.63
#>  3 T21101313  5.89  8.11  7.00  5.78    8.20  8.39    6.57   4.89    8.15
#>  4 T21101314  5.62  8.67  8.59  5.64    8.07  8.64    6.47   4.98    8.13
#>  5 T21101315  5.49  9.83  8.13  5.73    9.38  8.15    6.43   5.03    7.70
#>  6 T21101316  5.58  9.85  8.55  5.13    9.40  8.71    6.56   4.87    7.75
#>  7 T21101317  5.32 10.0   6.99  5.86    8.08  9.25    6.86   4.72    7.88
#>  8 T21101318  5.49  9.72  7.47  5.16    6.67  7.37    6.70   4.92    7.50
#>  9 T21101319  5.57  9.88  7.97  5.40    7.91  8.06    6.58   5.06    8.16
#> 10 T21101320  5.16  9.87  7.42  5.50    7.43  8.68    6.55   4.85    8.20
#> # ... with 26 more rows, and 8 more variables: MSMO1 <dbl>, FDFT1 <dbl>,
#> #   SC5DL <dbl>, LIPA <dbl>, CEL <dbl>, TM7SF2 <dbl>, NSDHL <dbl>,
#> #   SOAT2 <dbl>

Import Patient Info

Use the read_csv function to import the patient data.

pInfo_df <- read_csv("path_to_your_directory/your_subject_info.csv")
pInfo_df

#> Parsed with column specification:
#> cols(
#>   Sample = col_character(),
#>   eventTime = col_double(),
#>   eventObserved = col_logical()
#> )
#> # A tibble: 36 x 3
#>    Sample    eventTime eventObserved
#>    <chr>         <dbl> <lgl>        
#>  1 T21101311     14.2  TRUE         
#>  2 T21101312      1.00 TRUE         
#>  3 T21101313      6.75 FALSE        
#>  4 T21101314      8.50 TRUE         
#>  5 T21101315      7.25 FALSE        
#>  6 T21101316      5.00 TRUE         
#>  7 T21101317     20.0  TRUE         
#>  8 T21101318     13.2  FALSE        
#>  9 T21101319      7.75 FALSE        
#> 10 T21101320      9.00 FALSE        
#> # ... with 26 more rows

Match the Patient and Assay Data

Now that you have the measurement data in tidy form (assayT_df) and the patient response data (pInfo_df), you can use the inner_join function from the dplyr package to match the assay measurements to patient information by subject identifier.

(joinedExperiment_df <- inner_join(pInfo_df, assayT_df, by = "Sample"))
#> # A tibble: 36 x 20
#>    Sample    eventTime eventObserved SOAT1   LSS  SQLE   EBP CYP51A1 DHCR7
#>    <chr>         <dbl> <lgl>         <dbl> <dbl> <dbl> <dbl>   <dbl> <dbl>
#>  1 T21101311     14.2  TRUE           5.37  9.77  7.74  4.68    8.27  8.32
#>  2 T21101312      1.00 TRUE           5.52  9.78  8.06  5.12    8.21  8.33
#>  3 T21101313      6.75 FALSE          5.89  8.11  7.00  5.78    8.20  8.39
#>  4 T21101314      8.50 TRUE           5.62  8.67  8.59  5.64    8.07  8.64
#>  5 T21101315      7.25 FALSE          5.49  9.83  8.13  5.73    9.38  8.15
#>  6 T21101316      5.00 TRUE           5.58  9.85  8.55  5.13    9.40  8.71
#>  7 T21101317     20.0  TRUE           5.32 10.0   6.99  5.86    8.08  9.25
#>  8 T21101318     13.2  FALSE          5.49  9.72  7.47  5.16    6.67  7.37
#>  9 T21101319      7.75 FALSE          5.57  9.88  7.97  5.40    7.91  8.06
#> 10 T21101320      9.00 FALSE          5.16  9.87  7.42  5.50    7.43  8.68
#> # ... with 26 more rows, and 11 more variables: CYP27B1 <dbl>,
#> #   DHCR24 <dbl>, HSD17B7 <dbl>, MSMO1 <dbl>, FDFT1 <dbl>, SC5DL <dbl>,
#> #   LIPA <dbl>, CEL <dbl>, TM7SF2 <dbl>, NSDHL <dbl>, SOAT2 <dbl>
…
