Chapter 2 - Import and Tidy Data • pathwayPCA
…
3.2 Tidy the Assay Data Frame

The assay input to the pathwayPCA package must be in tidy data format. The “Tidy Data” format requires that each observation be its own row, and each measurement its own column. This means that we must transpose our assay data frame, while preserving the row and column names.

To do this, we can use the transpose_assay function. This function takes in a data frame as imported by the readr function based on data in a format similar to that shown above: genes are the rows, gene names are the first column, samples are stored in the subsequent columns, and all values in the assay (other than the gene names in the first column) are numeric.

(assayT_df <- transpose_assay(assay_df))
#> # A tibble: 36 x 18
#>    Sample    SOAT1   LSS  SQLE   EBP CYP51A1 DHCR7 CYP27B1 DHCR24 HSD17B7
#>    <chr>     <dbl> <dbl> <dbl> <dbl>   <dbl> <dbl>   <dbl>  <dbl>   <dbl>
#>  1 T21101311  5.37  9.77  7.74  4.68    8.27  8.32    6.78   4.70    7.63
#>  2 T21101312  5.52  9.78  8.06  5.12    8.21  8.33    6.47   5.06    7.63
#>  3 T21101313  5.89  8.11  7.00  5.78    8.20  8.39    6.57   4.89    8.15
#>  4 T21101314  5.62  8.67  8.59  5.64    8.07  8.64    6.47   4.98    8.13
#>  5 T21101315  5.49  9.83  8.13  5.73    9.38  8.15    6.43   5.03    7.70
#>  6 T21101316  5.58  9.85  8.55  5.13    9.40  8.71    6.56   4.87    7.75
#>  7 T21101317  5.32 10.0   6.99  5.86    8.08  9.25    6.86   4.72    7.88
#>  8 T21101318  5.49  9.72  7.47  5.16    6.67  7.37    6.70   4.92    7.50
#>  9 T21101319  5.57  9.88  7.97  5.40    7.91  8.06    6.58   5.06    8.16
#> 10 T21101320  5.16  9.87  7.42  5.50    7.43  8.68    6.55   4.85    8.20
#> # ... with 26 more rows, and 8 more variables: MSMO1 <dbl>, FDFT1 <dbl>,
#> #   SC5DL <dbl>, LIPA <dbl>, CEL <dbl>, TM7SF2 <dbl>, NSDHL <dbl>,
#> #   SOAT2 <dbl>
…
If we need the second row of assayT_df—corresponding to Sample “T21101312”—then we type

assayT_df[2, ]
#> # A tibble: 1 x 18
#>   Sample    SOAT1   LSS  SQLE   EBP CYP51A1 DHCR7 CYP27B1 DHCR24 HSD17B7
#>   <chr>     <dbl> <dbl> <dbl> <dbl>   <dbl> <dbl>   <dbl>  <dbl>   <dbl>
#> 1 T21101312  5.52  9.78  8.06  5.12    8.21  8.33    6.47   5.06    7.63
#> # ... with 8 more variables: MSMO1 <dbl>, FDFT1 <dbl>, SC5DL <dbl>,
#> #   LIPA <dbl>, CEL <dbl>, TM7SF2 <dbl>, NSDHL <dbl>, SOAT2 <dbl>

Notice that the tibble object has 1 row and 18 columns. - If we need the third column of assayT_df—corresponding to Gene “LSS”—then we type

assayT_df[, 3]
#> # A tibble: 36 x 1
#>      LSS
#>    <dbl>
#>  1  9.77
#>  2  9.78
#>  3  8.11
#>  4  8.67
#>  5  9.83
#>  6  9.85
#>  7 10.0 
#>  8  9.72
#>  9  9.88
#> 10  9.87
#> # ... with 26 more rows
…
pInfo_path <- system.file("extdata", "ex_pInfo_subset.csv",
                          package = "pathwayPCA", mustWork = TRUE)
pInfo_df <- read_csv(pInfo_path)

#> Parsed with column specification:
#> cols(
#>   Sample = col_character(),
#>   eventTime = col_double(),
#>   eventObserved = col_logical()
#> )

This data frame has a column for the sample labels (Sample) and the response information. In this case, our response is a survival response with an event time and observation indicator.

pInfo_df
#> # A tibble: 36 x 3
#>    Sample    eventTime eventObserved
#>    <chr>         <dbl> <lgl>        
#>  1 T21101311     14.2  TRUE         
#>  2 T21101312      1.00 TRUE         
#>  3 T21101313      6.75 FALSE        
#>  4 T21101314      8.50 TRUE         
#>  5 T21101315      7.25 FALSE        
#>  6 T21101316      5.00 TRUE         
#>  7 T21101317     20.0  TRUE         
#>  8 T21101318     13.2  FALSE        
#>  9 T21101319      7.75 FALSE        
#> 10 T21101320      9.00 FALSE        
#> # ... with 26 more rows

This pInfo data frame has the sample names as a column of character values, just like the transposed assay data frame. This is crucially important for the “joining” step. We can use the inner_join function from the dplyr library to retain only the rows of the assayT_df data frame which have responses in the pInfo data frame and vice versa. This way, every response in the phenotype data has matching predictors in the assay, and every recorded predictor in the assay matches a response in the phenotype data.

(joinedExperiment_df <- inner_join(pInfo_df, assayT_df, by = "Sample"))
#> # A tibble: 36 x 20
#>    Sample    eventTime eventObserved SOAT1   LSS  SQLE   EBP CYP51A1 DHCR7
#>    <chr>         <dbl> <lgl>         <dbl> <dbl> <dbl> <dbl>   <dbl> <dbl>
#>  1 T21101311     14.2  TRUE           5.37  9.77  7.74  4.68    8.27  8.32
#>  2 T21101312      1.00 TRUE           5.52  9.78  8.06  5.12    8.21  8.33
#>  3 T21101313      6.75 FALSE          5.89  8.11  7.00  5.78    8.20  8.39
#>  4 T21101314      8.50 TRUE           5.62  8.67  8.59  5.64    8.07  8.64
#>  5 T21101315      7.25 FALSE          5.49  9.83  8.13  5.73    9.38  8.15
#>  6 T21101316      5.00 TRUE           5.58  9.85  8.55  5.13    9.40  8.71
#>  7 T21101317     20.0  TRUE           5.32 10.0   6.99  5.86    8.08  9.25
#>  8 T21101318     13.2  FALSE          5.49  9.72  7.47  5.16    6.67  7.37
#>  9 T21101319      7.75 FALSE          5.57  9.88  7.97  5.40    7.91  8.06
#> 10 T21101320      9.00 FALSE          5.16  9.87  7.42  5.50    7.43  8.68
#> # ... with 26 more rows, and 11 more variables: CYP27B1 <dbl>,
#> #   DHCR24 <dbl>, HSD17B7 <dbl>, MSMO1 <dbl>, FDFT1 <dbl>, SC5DL <dbl>,
#> #   LIPA <dbl>, CEL <dbl>, TM7SF2 <dbl>, NSDHL <dbl>, SOAT2 <dbl>

This requires you to have a key column in both data frames with the same name. If the key column was called “Sample” in the pInfo_df data set but “SampleID” in the assay, then the by argument should be changed to c("Sample" = "SampleID"). It’s much nicer to just keep them with the same names, however. Moreover, it is vitally important that you check your sample IDs. Obviously the expressed genetic data should pair with the phenotype information, but it is your responsibility as the user to confirm that the assay rows match the correct responses. We can show you the proper methods to check your data, but you are ultimately responsible to use this package properly.

5. Example Tidy Assay and Gene Set

Included in this package, we have a small tidy assay and corresponding gene subset list. We will load and inspect this assay. This data set has 656 gene expression measurements on 250 colon cancer patients. Further notice that the assay and overall survival response information have already been matched.

data("colonSurv_df")
colonSurv_df
#> # A tibble: 250 x 658
#>    OS_time OS_event   JUN  SOS2  PAK3  RAF1 PRKCB   BTC  SHC1 PRKCA  ELK1
#>      <dbl>    <int> <dbl> <dbl> <dbl> <dbl> <dbl> <dbl> <dbl> <dbl> <dbl>
#>  1  64.9          0  9.29  5.48  8.21  8.03  5.49  6.65  8.26  8.94  7.38
#>  2  59.8          0  9.13  6.35  8.33  7.94  6.26  7.02  8.39  9.61  7.53
#>  3  62.4          0  9.37  5.67  7.82  7.74  6.05  7.52  8.69  8.40  7.25
#>  4  54.5          0 10.6   4.94  8.79  7.64  5.37  6.87  7.81  9.80  7.79
#>  5  46.3          1  8.70  5.60  8.75  8.05  6.07  6.49  8.45  8.21  7.60
#>  6  55.9          0  9.78  5.36  7.56  8.07  5.90  6.39  8.87  8.22  7.35
#>  7  58.0          0  9.22  5.05  8.20  7.80  5.55  6.86  8.28  8.97  7.43
#>  8  54.0          0 10.3   5.33  7.82  7.89  6.27  6.25  8.66  9.71  7.38
#>  9   0.427        1 10.8   5.07  7.63  7.69  5.48  7.57  8.36  9.69  6.66
#> 10  41.4          0  9.52  5.50  7.48  7.53  5.71  7.33  8.54  8.14  6.88
#> # ... with 240 more rows, and 647 more variables: NRG1 <dbl>, PAK2 <dbl>,
#> #   MTOR <dbl>, PAK4 <dbl>, MAP2K4 <dbl>, EIF4EBP1 <dbl>, BAD <dbl>,
#> #   PRKCG <dbl>, NRG3 <dbl>, MAPK9 <dbl>, ERBB4 <dbl>, MAPK10 <dbl>,
#> #   PTK2 <dbl>, ERBB2 <dbl>, ERBB3 <dbl>, MAP2K2 <dbl>, TGFA <dbl>,
#> #   BRAF <dbl>, MAP2K1 <dbl>, MAP2K7 <dbl>, ABL1 <dbl>, NRG2 <dbl>,
#> #   AKT1 <dbl>, ABL2 <dbl>, AKT2 <dbl>, SHC4 <dbl>, RPS6KB1 <dbl>,
#> #   RPS6KB2 <dbl>, AKT3 <dbl>, NRAS <dbl>, GRB2 <dbl>, AREG <dbl>,
#> #   STAT5B <dbl>, MAPK3 <dbl>, STAT5A <dbl>, PAK6 <dbl>, SOS1 <dbl>,
#> #   MYC <dbl>, MAPK1 <dbl>, NCK1 <dbl>, PIK3R5 <dbl>, NRG4 <dbl>,
…
