Chapter 3 - Creating Data Objects • pathwayPCA
…
Because this is the third chapter in the workflow, we assume that

Your assay is “tidy”.

Your gene pathways list is stored in a pathwaySet object.

Your response and assay data have already been ID-matched.

If you are unsure about any of the three points above (or you don’t know what these mean), please review the Import and Tidy Data vignette first. It isn’t very long, but it will help you set up your data in the right way.

For the purpose of example, we will load some “toy” data: a combined assay / phenotype data frame and a pathwaySet list which already fits the three criteria above. This tidy data set has 656 gene expression measurements (columns) on 250 colon cancer patients (rows). Notice that the assay and survival response information have already been merged, so we have two additional columns (for Overall Survival Time and its corresponding death indicator).

data("colonSurv_df")
colonSurv_df
#> # A tibble: 250 x 658
#>    OS_time OS_event   JUN  SOS2  PAK3  RAF1 PRKCB   BTC  SHC1 PRKCA  ELK1
#>      <dbl>    <int> <dbl> <dbl> <dbl> <dbl> <dbl> <dbl> <dbl> <dbl> <dbl>
#>  1  64.9          0  9.29  5.48  8.21  8.03  5.49  6.65  8.26  8.94  7.38
#>  2  59.8          0  9.13  6.35  8.33  7.94  6.26  7.02  8.39  9.61  7.53
#>  3  62.4          0  9.37  5.67  7.82  7.74  6.05  7.52  8.69  8.40  7.25
#>  4  54.5          0 10.6   4.94  8.79  7.64  5.37  6.87  7.81  9.80  7.79
#>  5  46.3          1  8.70  5.60  8.75  8.05  6.07  6.49  8.45  8.21  7.60
#>  6  55.9          0  9.78  5.36  7.56  8.07  5.90  6.39  8.87  8.22  7.35
#>  7  58.0          0  9.22  5.05  8.20  7.80  5.55  6.86  8.28  8.97  7.43
#>  8  54.0          0 10.3   5.33  7.82  7.89  6.27  6.25  8.66  9.71  7.38
#>  9   0.427        1 10.8   5.07  7.63  7.69  5.48  7.57  8.36  9.69  6.66
#> 10  41.4          0  9.52  5.50  7.48  7.53  5.71  7.33  8.54  8.14  6.88
#> # ... with 240 more rows, and 647 more variables: NRG1 <dbl>, PAK2 <dbl>,
#> #   MTOR <dbl>, PAK4 <dbl>, MAP2K4 <dbl>, EIF4EBP1 <dbl>, BAD <dbl>,
#> #   PRKCG <dbl>, NRG3 <dbl>, MAPK9 <dbl>, ERBB4 <dbl>, MAPK10 <dbl>,
#> #   PTK2 <dbl>, ERBB2 <dbl>, ERBB3 <dbl>, MAP2K2 <dbl>, TGFA <dbl>,
#> #   BRAF <dbl>, MAP2K1 <dbl>, MAP2K7 <dbl>, ABL1 <dbl>, NRG2 <dbl>,
#> #   AKT1 <dbl>, ABL2 <dbl>, AKT2 <dbl>, SHC4 <dbl>, RPS6KB1 <dbl>,
#> #   RPS6KB2 <dbl>, AKT3 <dbl>, NRAS <dbl>, GRB2 <dbl>, AREG <dbl>,
#> #   STAT5B <dbl>, MAPK3 <dbl>, STAT5A <dbl>, PAK6 <dbl>, SOS1 <dbl>,
#> #   MYC <dbl>, MAPK1 <dbl>, NCK1 <dbl>, PIK3R5 <dbl>, NRG4 <dbl>,
…
4. Inspecting and Editing Omics-Class Objects

In order to access or edit a specific component of an Omics object, we need to use specific accessor functions. These functions are named with the component they access.

4.1 Example “Get” Function

The get* functions access the part of the data object you specify. You can save these objects to their own variables, or simply print them to the screen for inspection. Here we print the assay data frame contained in the colon_OmicsSurv object to the screen:

getAssay(colon_OmicsSurv)
#> # A tibble: 250 x 656
#>      JUN  SOS2  PAK3  RAF1 PRKCB   BTC  SHC1 PRKCA  ELK1  NRG1  PAK2  MTOR
#>    <dbl> <dbl> <dbl> <dbl> <dbl> <dbl> <dbl> <dbl> <dbl> <dbl> <dbl> <dbl>
#>  1  9.29  5.48  8.21  8.03  5.49  6.65  8.26  8.94  7.38  7.50  7.32  6.96
#>  2  9.13  6.35  8.33  7.94  6.26  7.02  8.39  9.61  7.53  7.68  6.80  6.96
#>  3  9.37  5.67  7.82  7.74  6.05  7.52  8.69  8.40  7.25  7.33  7.48  7.15
#>  4 10.6   4.94  8.79  7.64  5.37  6.87  7.81  9.80  7.79  8.38  6.16  6.48
#>  5  8.70  5.60  8.75  8.05  6.07  6.49  8.45  8.21  7.60  6.65  7.04  6.66
#>  6  9.78  5.36  7.56  8.07  5.90  6.39  8.87  8.22  7.35  7.83  7.39  6.90
#>  7  9.22  5.05  8.20  7.80  5.55  6.86  8.28  8.97  7.43  7.20  7.04  6.96
#>  8 10.3   5.33  7.82  7.89  6.27  6.25  8.66  9.71  7.38  7.09  7.22  7.11
#>  9 10.8   5.07  7.63  7.69  5.48  7.57  8.36  9.69  6.66  7.22  6.99  6.89
#> 10  9.52  5.50  7.48  7.53  5.71  7.33  8.54  8.14  6.88  7.31  7.01  6.82
#> # ... with 240 more rows, and 644 more variables: PAK4 <dbl>,
#> #   MAP2K4 <dbl>, EIF4EBP1 <dbl>, BAD <dbl>, PRKCG <dbl>, NRG3 <dbl>,
#> #   MAPK9 <dbl>, ERBB4 <dbl>, MAPK10 <dbl>, PTK2 <dbl>, ERBB2 <dbl>,
#> #   ERBB3 <dbl>, MAP2K2 <dbl>, TGFA <dbl>, BRAF <dbl>, MAP2K1 <dbl>,
#> #   MAP2K7 <dbl>, ABL1 <dbl>, NRG2 <dbl>, AKT1 <dbl>, ABL2 <dbl>,
#> #   AKT2 <dbl>, SHC4 <dbl>, RPS6KB1 <dbl>, RPS6KB2 <dbl>, AKT3 <dbl>,
#> #   NRAS <dbl>, GRB2 <dbl>, AREG <dbl>, STAT5B <dbl>, MAPK3 <dbl>,
#> #   STAT5A <dbl>, PAK6 <dbl>, SOS1 <dbl>, MYC <dbl>, MAPK1 <dbl>,
#> #   NCK1 <dbl>, PIK3R5 <dbl>, NRG4 <dbl>, HRAS <dbl>, MAPK8 <dbl>,
…
