Import and Tidy Data • pathwayPCA
…
This data import step stored the row names (the gene names) as the first column, and preserved the column names (sample labels) of the data.

Tidy the Assay Data Frame

The assay input to the pathwayPCA package must be in tidy data format. The “Tidy Data” format requires that each observation be its own row, and each measurement its own column. This means that we must transpose our assay data frame, while preserving the row and column names.

To do this, we can use the transpose_assay function. This function takes in a data frame as imported by the readr function based on data in a format similar to that shown above: genes are the rows, gene names are the first column, samples are are the stored in the subsequent columns, and all values in the assay (other than the single names column) are numeric.

(assayT_df <- transpose_assay(assay_df))
#> # A tibble: 36 x 18
#>    Sample    SOAT1   LSS  SQLE   EBP CYP51A1 DHCR7 CYP27B1 DHCR24 HSD17B7
#>    <chr>     <dbl> <dbl> <dbl> <dbl>   <dbl> <dbl>   <dbl>  <dbl>   <dbl>
#>  1 T21101311  5.37  9.77  7.74  4.68    8.27  8.32    6.78   4.70    7.63
#>  2 T21101312  5.52  9.78  8.06  5.12    8.21  8.33    6.47   5.06    7.63
#>  3 T21101313  5.89  8.11  7.00  5.78    8.20  8.39    6.57   4.89    8.15
#>  4 T21101314  5.62  8.67  8.59  5.64    8.07  8.64    6.47   4.98    8.13
#>  5 T21101315  5.49  9.83  8.13  5.73    9.38  8.15    6.43   5.03    7.70
#>  6 T21101316  5.58  9.85  8.55  5.13    9.40  8.71    6.56   4.87    7.75
#>  7 T21101317  5.32 10.0   6.99  5.86    8.08  9.25    6.86   4.72    7.88
#>  8 T21101318  5.49  9.72  7.47  5.16    6.67  7.37    6.70   4.92    7.50
#>  9 T21101319  5.57  9.88  7.97  5.40    7.91  8.06    6.58   5.06    8.16
#> 10 T21101320  5.16  9.87  7.42  5.50    7.43  8.68    6.55   4.85    8.20
#> # ... with 26 more rows, and 8 more variables: MSMO1 <dbl>, FDFT1 <dbl>,
#> #   SC5DL <dbl>, LIPA <dbl>, CEL <dbl>, TM7SF2 <dbl>, NSDHL <dbl>,
#> #   SOAT2 <dbl>
…
If we need the second row of assayT_df—corresponding to Sample “T21101312”—then we type

assayT_df[2, ]
#> # A tibble: 1 x 18
#>   Sample    SOAT1   LSS  SQLE   EBP CYP51A1 DHCR7 CYP27B1 DHCR24 HSD17B7
#>   <chr>     <dbl> <dbl> <dbl> <dbl>   <dbl> <dbl>   <dbl>  <dbl>   <dbl>
#> 1 T21101312  5.52  9.78  8.06  5.12    8.21  8.33    6.47   5.06    7.63
#> # ... with 8 more variables: MSMO1 <dbl>, FDFT1 <dbl>, SC5DL <dbl>,
#> #   LIPA <dbl>, CEL <dbl>, TM7SF2 <dbl>, NSDHL <dbl>, SOAT2 <dbl>

If we need the third column of assayT_df—corresponding to Gene “LSS”—then we type

assayT_df[, 3]
#> # A tibble: 36 x 1
#>      LSS
#>    <dbl>
#>  1  9.77
#>  2  9.78
#>  3  8.11
#>  4  8.67
#>  5  9.83
#>  6  9.85
#>  7 10.0 
#>  8  9.72
#>  9  9.88
#> 10  9.87
#> # ... with 26 more rows
…
We now need to import the response information. We can use the read_csv function once again:

pInfo_df <- read_csv("path_to_your_directory/your_subject_info.csv")

#> Parsed with column specification:
#> cols(
#>   Sample = col_character(),
#>   eventTime = col_double(),
#>   eventObserved = col_logical()
#> )

This data frame has a column for the sample labels (Sample) and the response information. In this case, our response is a survival response with an event time and observation indicator.

pInfo_df
#> # A tibble: 36 x 3
#>    Sample    eventTime eventObserved
#>    <chr>         <dbl> <lgl>        
#>  1 T21101311     14.2  TRUE         
#>  2 T21101312      1.00 TRUE         
#>  3 T21101313      6.75 FALSE        
#>  4 T21101314      8.50 TRUE         
#>  5 T21101315      7.25 FALSE        
#>  6 T21101316      5.00 TRUE         
#>  7 T21101317     20.0  TRUE         
#>  8 T21101318     13.2  FALSE        
#>  9 T21101319      7.75 FALSE        
#> 10 T21101320      9.00 FALSE        
#> # ... with 26 more rows
…
response_fact = classification response as a factor vector. The column in your imported data corresponding to the classification / categorical regression response should have the <fct> tag. It is highly likely that the classification response was imported as an integer (if the original values were coded as 0/1) or a character (if the original values were given character names, such as “benign” / “malignent”). Either way, use the as.factor command to transform that column from a character or integer column into a factor column. For example, the as.factor function can turn our logical censoring indicator from a vector of TRUE and FALSE to a categorical (factor) vector with levels TRUE and FALSE. This will not overwrite the original column, so make sure you save this new factor.

(eventObs_fct <- as.factor(pInfo_df$eventObserved))
#>  [1] TRUE  TRUE  FALSE TRUE  FALSE TRUE  TRUE  FALSE FALSE FALSE TRUE 
#> [12] TRUE  FALSE TRUE  TRUE  TRUE  FALSE FALSE TRUE  TRUE  TRUE  TRUE 
#> [23] FALSE TRUE  TRUE  TRUE  TRUE  TRUE  TRUE  TRUE  TRUE  TRUE  TRUE 
#> [34] TRUE  TRUE  TRUE 
#> Levels: FALSE TRUE

Join the Response and Assay Data Frames

This pInfo data frame has the sample names as a column of chr values, just like the transposed assay data frame. This is crucially important for the “joining” step. We can use the inner_join function from the dplyr library to only retain the rows of the assayT_df data frame which have responses in the pInfo data frame and vice versa. This way, every response has matching assay predictors, and every recorded assay sample has a matching response.

(joinedExperiment_df <- inner_join(pInfo_df, assayT_df, by = "Sample"))
#> # A tibble: 36 x 20
#>    Sample    eventTime eventObserved SOAT1   LSS  SQLE   EBP CYP51A1 DHCR7
#>    <chr>         <dbl> <lgl>         <dbl> <dbl> <dbl> <dbl>   <dbl> <dbl>
#>  1 T21101311     14.2  TRUE           5.37  9.77  7.74  4.68    8.27  8.32
#>  2 T21101312      1.00 TRUE           5.52  9.78  8.06  5.12    8.21  8.33
#>  3 T21101313      6.75 FALSE          5.89  8.11  7.00  5.78    8.20  8.39
#>  4 T21101314      8.50 TRUE           5.62  8.67  8.59  5.64    8.07  8.64
#>  5 T21101315      7.25 FALSE          5.49  9.83  8.13  5.73    9.38  8.15
#>  6 T21101316      5.00 TRUE           5.58  9.85  8.55  5.13    9.40  8.71
#>  7 T21101317     20.0  TRUE           5.32 10.0   6.99  5.86    8.08  9.25
#>  8 T21101318     13.2  FALSE          5.49  9.72  7.47  5.16    6.67  7.37
#>  9 T21101319      7.75 FALSE          5.57  9.88  7.97  5.40    7.91  8.06
#> 10 T21101320      9.00 FALSE          5.16  9.87  7.42  5.50    7.43  8.68
#> # ... with 26 more rows, and 11 more variables: CYP27B1 <dbl>,
#> #   DHCR24 <dbl>, HSD17B7 <dbl>, MSMO1 <dbl>, FDFT1 <dbl>, SC5DL <dbl>,
#> #   LIPA <dbl>, CEL <dbl>, TM7SF2 <dbl>, NSDHL <dbl>, SOAT2 <dbl>
…
