Integrative Pathway Analysis with pathwayPCA • pathwayPCA
…
Part 3: Adjusting p-Values and Sorting Pathway p-Value Data Frame
DONE

This ovarian_aespcOut object contains 3 components: a table of pathway \(p\)-values, AESPCA-estimated PCs of each sample from each pathway, and the loadings of each protein onto the AESPCs.

names(ovarian_aespcOut)
#> [1] "pVals_df"    "PCs_ls"      "loadings_ls"

2.2.3 The pathway analysis results

For this ovarian cancer dataset, the top 10 most significant pathways identified by AES-PCA are:

ovarian_aespcOut$pVals_df
#> # A tibble: 324 x 6
#>    pathways n_tested terms  description                         rawp FDR_BH
#>  * <chr>       <dbl> <chr>  <chr>                              <dbl>  <dbl>
#>  1 path22         30 WP195  IL-1 signaling pathway           0.00247  0.279
#>  2 path253        16 WP3858 Toll-like Receptor Signaling     0.00463  0.279
#>  3 path410        18 WP363  Wnt Signaling Pathway            0.00485  0.279
#>  4 path33         24 WP2447 Amyotrophic lateral sclerosis (~ 0.00582  0.279
#>  5 path128        22 WP2036 TNF related weak inducer of apo~ 0.00641  0.279
#>  6 path95         12 WP3298 Melatonin metabolism and effects 0.00688  0.279
#>  7 path249        13 WP3850 Factors and pathways affecting ~ 0.00700  0.279
#>  8 path208        10 WP3617 Photodynamic therapy-induced NF~ 0.00714  0.279
#>  9 path133         8 WP34   Ovarian Infertility Genes        0.00801  0.279
#> 10 path242        14 WP3851 TLR4 Signaling and Tolerance     0.00870  0.279
#> # ... with 314 more rows
…
2.2.4 Extract relevant genes from significant pathways

Because pathways are defined a priori, typically within each pathway, only a subset of genes are relevant to the phenotype and contribute to pathway significance. In AESPCA, these relevant genes are the genes with nonzero loadings in the first PC of AESPCs.

For example, for the “IL-1 signaling pathway” (Wikipathways WP195), we can extract the principal components and their protein loadings using the getPathPCLs() function:

wp195PCLs_ls <- getPathPCLs(ovarian_aespcOut, "WP195")
wp195PCLs_ls
#> $PCs
#> # A tibble: 83 x 2
#>    sampleID         V1
#>    <chr>         <dbl>
#>  1 TCGA.09.1664 -2.66 
#>  2 TCGA.13.1484 -0.459
#>  3 TCGA.13.1488  0.603
#>  4 TCGA.13.1489 -1.70 
#>  5 TCGA.13.1494 -0.726
#>  6 TCGA.13.1495 -0.316
#>  7 TCGA.13.1499  0.252
#>  8 TCGA.23.1123 -0.679
#>  9 TCGA.23.1124  1.83 
#> 10 TCGA.24.1103 -1.93 
#> # ... with 73 more rows
#> 
#> $Loadings
#> # A tibble: 30 x 2
#>    featureID   PC1
#>    <chr>     <dbl>
#>  1 ATF2      0    
#>  2 MAPK14    0    
#>  3 AKT1      0    
#>  4 IKBKB     0.527
#>  5 NFKB1     0.483
#>  6 PIK3R1    0.352
#>  7 PLCG1     0    
#>  8 MAPK1     0    
#>  9 MAPK9     0    
#> 10 MAP2K1    0.289
#> # ... with 20 more rows
…
This graph shows there can be considerable heterogeneity in pathway activities between the patients.

2.2.6 Extract analysis dataset for significant pathways

Users are often also interested in examining the actual data used for analysis of the top pathways, especially for the relevant genes with the pathway. To extract this dataset, we can use the SubsetPathwayData() function. For example, to extract data for the most significant pathway,

wp195Data_df <- SubsetPathwayData(ov_OmicsSurv, "WP195")
wp195Data_df
#> # A tibble: 83 x 33
#>    sampleID EventTime EventObs   ATF2  MAPK14    AKT1   IKBKB   NFKB1
#>    <chr>        <dbl> <lgl>     <dbl>   <dbl>   <dbl>   <dbl>   <dbl>
#>  1 TCGA.09~      2279 TRUE      0.623 -0.995   0.958  -1.71   -0.730 
#>  2 TCGA.13~      3785 TRUE      1.17   1.71    0.575  -0.751   0.783 
#>  3 TCGA.13~      2154 TRUE     -0.130 -0.127  -0.542  -0.915   0.418 
#>  4 TCGA.13~      2553 TRUE      0.482 -0.0588 -0.292  -0.422  -0.488 
#>  5 TCGA.13~      2856 TRUE      0.130  0.610   1.25   -0.950   0.393 
#>  6 TCGA.13~      2749 TRUE     -0.823  0.266   1.79   -0.522  -0.0498
#>  7 TCGA.13~      3500 FALSE    -0.704  0.516  -0.519  -0.494   0.104 
#>  8 TCGA.23~      1018 TRUE      0.270 -0.419  -3.63    0.0331 -0.114 
#>  9 TCGA.23~      1768 TRUE     -2.61  -1.81   -0.0214  0.811   1.17  
#> 10 TCGA.24~      1646 TRUE      0.270 -0.622   1.23   -0.924  -0.954 
#> # ... with 73 more rows, and 25 more variables: PIK3R1 <dbl>, PLCG1 <dbl>,
#> #   MAPK1 <dbl>, MAPK9 <dbl>, MAP2K1 <dbl>, MAP2K2 <dbl>, MAP2K6 <dbl>,
#> #   PTPN11 <dbl>, REL <dbl>, RELA <dbl>, MAP3K7 <dbl>, IKBKG <dbl>,
#> #   TAB1 <dbl>, IRAK1 <dbl>, MYD88 <dbl>, IRAK4 <dbl>, ECSIT <dbl>,
#> #   TOLLIP <dbl>, MAPK3 <dbl>, MAP2K3 <dbl>, MAP2K4 <dbl>, TRAF6 <dbl>,
#> #   UBE2N <dbl>, SQSTM1 <dbl>, MAPKAPK2 <dbl>
…
# Proteomics
PROTpvals_df <- 
  ovarian_aespcOut$pVals_df %>% 
  mutate(rawp_PROT = rawp) %>% 
  select(terms, description, rawp_PROT) %>% 
  filter(rawp_PROT < 0.05)

# Intersection
SigBoth_df <- inner_join(PROTpvals_df, CNVpvals_df, by = "description")
# WnT Signaling Pathway is listed as WP363 and WP428

The results showed there are 23 pathways significantly associated with survival in both CNV and protein data. Here are the top-10 most significant pathways (sorted by protein data significance):

SigBoth_df
#> # A tibble: 23 x 4
#>    terms  description                                    rawp_PROT rawp_CNV
#>    <chr>  <chr>                                              <dbl>    <dbl>
#>  1 WP195  IL-1 signaling pathway                           0.00247 0.0222  
#>  2 WP363  Wnt Signaling Pathway                            0.00485 0.0486  
#>  3 WP2036 TNF related weak inducer of apoptosis (TWEAK)~   0.00641 0.0226  
#>  4 WP3850 Factors and pathways affecting insulin-like g~   0.00700 0.0366  
#>  5 WP2203 Thymic Stromal LymphoPoietin (TSLP) Signaling~   0.0156  0.0181  
#>  6 WP4136 Fibrin Complement Receptor 3 Signaling Pathway   0.0160  0.000358
#>  7 WP384  Apoptosis Modulation by HSP70                    0.0165  0.0311  
#>  8 WP2018 RANKL/RANK (Receptor activator of NFKB (ligan~   0.0170  0.000418
#>  9 WP560  TGF-beta Receptor Signaling                      0.0205  0.0355  
#> 10 WP2380 Brain-Derived Neurotrophic Factor (BDNF) sign~   0.0206  0.0113  
#> # ... with 13 more rows
…
