Suppl. Ch. 5 - Visualizing the Results • pathwayPCA
…
3.1 Extract Pathway Decomposition

We will chose the top two significant pathways for closer inspection, and we want to ascertain which genes load onto the pathway PCs. Notice that the pathway loadings are named by the internal pathway key, so we need to use the getPathPCL() to match this key to its pathway and extract the pathway PCs and loadings (PC & L) list from the colonSurv_aespcOut object. Here are the loading vectors and pathway details from PID_EPHB_FWD_PATHWAY:

pathway491_ls <- getPathPCLs(colonSurv_aespcOut, "PID_EPHB_FWD_PATHWAY")
pathway491_ls
#> $PCs
#> # A tibble: 250 x 3
#>    sampleID      V1     V2
#>    <chr>      <dbl>  <dbl>
#>  1 subj1    -0.712   0.525
#>  2 subj2    -0.0580  0.293
#>  3 subj3    -1.65    0.367
#>  4 subj4     3.63    1.78 
#>  5 subj5    -1.60   -0.279
#>  6 subj6     1.95    3.12 
#>  7 subj7     2.38    1.48 
#>  8 subj8    -1.48   -0.126
#>  9 subj9    -0.102   0.364
#> 10 subj10    1.89    2.05 
#> # … with 240 more rows
#> 
#> $Loadings
#> # A tibble: 40 x 3
#>    featureID    PC1   PC2
#>    <chr>      <dbl> <dbl>
#>  1 EPHB2      0.242 0.123
#>  2 EPHB4      0.168 0    
#>  3 EFNA5      0     0    
#>  4 MAPK1     -0.265 0.251
#>  5 SRC        0     0.416
#>  6 GRB2       0     0    
#>  7 MAP2K1     0     0    
#>  8 PXN        0     0.471
#>  9 CRK        0     0    
#> 10 CDC42      0     0    
#> # … with 30 more rows
…
