Suppl. Ch. 4 - Test Pathway Significance • pathwayPCA
…
5.2 Pathway PC and Loading Vectors

We also may be interested in which genes or proteins “drive” a specific pathway. We can extract the pathway-specific PCs and loadings (PC & L) from either the AESPCA or Supervised PCA output with the getPathPCLs() function. This function will take in either the proper name of a pathway (as given in the terms column) or the unique pathway identifier (as shown in the pathways column). Note that the PCs and Loadings are stored in tidy data frames, so they will have enhanced printing properties if you have the tidyverse package suite loaded.

PCLs_ls <- getPathPCLs(colonSurv_aespcOut, "KEGG_ASTHMA")
PCLs_ls
#> $PCs
#> # A tibble: 250 x 3
#>    sampleID     V1     V2
#>    <chr>     <dbl>  <dbl>
#>  1 subj1    -1.36   1.98 
#>  2 subj2    -0.649  3.35 
#>  3 subj3     1.73  -0.822
#>  4 subj4    -0.156  7.11 
#>  5 subj5     2.11   3.70 
#>  6 subj6     0.284  1.78 
#>  7 subj7    -1.93   3.21 
#>  8 subj8     3.28   0.551
#>  9 subj9    -0.118 -0.458
#> 10 subj10   -1.56   0.266
#> # … with 240 more rows
#> 
#> $Loadings
#> # A tibble: 26 x 3
#>    featureID    PC1   PC2
#>    <chr>      <dbl> <dbl>
#>  1 HLA-DRB4  0      0    
#>  2 HLA-DOA   0.228  0    
#>  3 HLA-DOB   0.0851 0.287
#>  4 IL3       0      0.318
#>  5 TNF       0      0.153
#>  6 CCL11     0      0    
#>  7 EPX       0      0.494
#>  8 FCER1G    0.331  0    
#>  9 MS4A2     0      0    
#> 10 HLA-DMB   0.347  0    
#> # … with 16 more rows
…
