Suppl. Ch. 3 - Creating Data Objects • pathwayPCA
…
Because this is the third chapter in the workflow, we assume that

Your assay is “tidy”.

Your gene pathways list is stored in a pathwayCollection object.

Your phenotype and assay data have already been ID-matched.

If you are unsure about any of the three points above (or you don’t know what these mean), please review the Import and Tidy Data vignette first. It isn’t very long, but it will help you set up your data in the right way. If your data is not in the proper form, the steps in this vignette may be very difficult.

For the purpose of example, we will load some “toy” data: a combined assay / phenotype data frame and a pathwayCollection list. These objects already fit the three criteria above. This tidy data set has 656 gene expression measurements (columns) on 250 colon cancer patients (rows).

data("colonSurv_df")
colonSurv_df
#> # A tibble: 250 x 659
#>    sampleID OS_time OS_event   JUN  SOS2  PAK3  RAF1 PRKCB   BTC  SHC1
#>    <chr>      <dbl>    <int> <dbl> <dbl> <dbl> <dbl> <dbl> <dbl> <dbl>
#>  1 subj1     64.9          0  9.29  5.48  8.21  8.03  5.49  6.65  8.26
#>  2 subj2     59.8          0  9.13  6.35  8.33  7.94  6.26  7.02  8.39
#>  3 subj3     62.4          0  9.37  5.67  7.82  7.74  6.05  7.52  8.69
#>  4 subj4     54.5          0 10.6   4.94  8.79  7.64  5.37  6.87  7.81
#>  5 subj5     46.3          1  8.70  5.60  8.75  8.05  6.07  6.49  8.45
#>  6 subj6     55.9          0  9.78  5.36  7.56  8.07  5.90  6.39  8.87
#>  7 subj7     58.0          0  9.22  5.05  8.20  7.80  5.55  6.86  8.28
#>  8 subj8     54.0          0 10.3   5.33  7.82  7.89  6.27  6.25  8.66
#>  9 subj9      0.427        1 10.8   5.07  7.63  7.69  5.48  7.57  8.36
#> 10 subj10    41.4          0  9.52  5.50  7.48  7.53  5.71  7.33  8.54
#> # ... with 240 more rows, and 649 more variables: PRKCA <dbl>, ELK1 <dbl>,
#> #   NRG1 <dbl>, PAK2 <dbl>, MTOR <dbl>, PAK4 <dbl>, MAP2K4 <dbl>,
#> #   EIF4EBP1 <dbl>, BAD <dbl>, PRKCG <dbl>, NRG3 <dbl>, MAPK9 <dbl>,
#> #   ERBB4 <dbl>, MAPK10 <dbl>, PTK2 <dbl>, ERBB2 <dbl>, ERBB3 <dbl>,
#> #   MAP2K2 <dbl>, TGFA <dbl>, BRAF <dbl>, MAP2K1 <dbl>, MAP2K7 <dbl>,
#> #   ABL1 <dbl>, NRG2 <dbl>, AKT1 <dbl>, ABL2 <dbl>, AKT2 <dbl>,
#> #   SHC4 <dbl>, RPS6KB1 <dbl>, RPS6KB2 <dbl>, AKT3 <dbl>, NRAS <dbl>,
#> #   GRB2 <dbl>, AREG <dbl>, STAT5B <dbl>, MAPK3 <dbl>, STAT5A <dbl>,
#> #   PAK6 <dbl>, SOS1 <dbl>, MYC <dbl>, MAPK1 <dbl>, NCK1 <dbl>,
…
4. Inspecting and Editing Omics-Class Objects

In order to access or edit a specific component of an Omics object, we need to use specific accessor functions. These functions are named with the component they access.

4.1 Example “Get” Function

The get* functions access the part of the data object you specify. You can save these objects to their own variables, or simply print them to the screen for inspection. Here we print the assay data frame contained in the colon_OmicsSurv object to the screen:

getAssay(colon_OmicsSurv)
#> # A tibble: 250 x 656
#>       JUN    SOS2   PAK3    RAF1  PRKCB    BTC     SHC1   PRKCA   ELK1
#>     <dbl>   <dbl>  <dbl>   <dbl>  <dbl>  <dbl>    <dbl>   <dbl>  <dbl>
#>  1 -0.880  0.367   1.30   0.480  -0.867 -0.790 -2.84e-1  0.0104  1.04 
#>  2 -1.11   2.15    1.62   0.165   0.547 -0.261 -4.91e-4  1.18    1.49 
#>  3 -0.752  0.764   0.330 -0.541   0.164  0.452  6.91e-1 -0.950   0.667
#>  4  1.03  -0.751   2.75  -0.878  -1.09  -0.481 -1.34e+0  1.52    2.23 
#>  5 -1.73   0.613   2.66   0.550   0.197 -1.02   1.56e-1 -1.29    1.68 
#>  6 -0.162  0.126  -0.324  0.627  -0.106 -1.17   1.11e+0 -1.27    0.964
#>  7 -0.980 -0.520   1.28  -0.343  -0.762 -0.489 -2.57e-1  0.0518  1.21 
#>  8  0.616  0.0633  0.343 -0.0195  0.578 -1.37   6.38e-1  1.37    1.05 
#>  9  1.35  -0.467  -0.149 -0.718  -0.898  0.527 -6.04e-2  1.32   -1.000
#> 10 -0.538  0.413  -0.503 -1.27   -0.466  0.178  3.45e-1 -1.40   -0.378
#> # ... with 240 more rows, and 647 more variables: NRG1 <dbl>, PAK2 <dbl>,
#> #   MTOR <dbl>, PAK4 <dbl>, MAP2K4 <dbl>, EIF4EBP1 <dbl>, BAD <dbl>,
#> #   PRKCG <dbl>, NRG3 <dbl>, MAPK9 <dbl>, ERBB4 <dbl>, MAPK10 <dbl>,
#> #   PTK2 <dbl>, ERBB2 <dbl>, ERBB3 <dbl>, MAP2K2 <dbl>, TGFA <dbl>,
#> #   BRAF <dbl>, MAP2K1 <dbl>, MAP2K7 <dbl>, ABL1 <dbl>, NRG2 <dbl>,
#> #   AKT1 <dbl>, ABL2 <dbl>, AKT2 <dbl>, SHC4 <dbl>, RPS6KB1 <dbl>,
#> #   RPS6KB2 <dbl>, AKT3 <dbl>, NRAS <dbl>, GRB2 <dbl>, AREG <dbl>,
#> #   STAT5B <dbl>, MAPK3 <dbl>, STAT5A <dbl>, PAK6 <dbl>, SOS1 <dbl>,
#> #   MYC <dbl>, MAPK1 <dbl>, NCK1 <dbl>, PIK3R5 <dbl>, NRG4 <dbl>,
…
