Suppl. Ch. 1 - Quickstart Guide for New R Users • pathwayPCA
…
Incidentally, we consider gene symbols to adhere to the following conditions:

gene symbols must start with an English letter (a-z or A-Z), and

gene symbols can only contain English letters, Arabic numerals (0-9), and possibly a dash (-).

Furthermore, if your data has samples in the columns and -omic feature measurements in the rows (like the data set above), you’ll need to “tidy” the imported assay with the TransposeAssay function. The transposed data set will appear similar to the following:

assayT_df <- TransposeAssay(assay_df)
assayT_df
#> # A tibble: 36 x 18
#>    Sample SOAT1   LSS  SQLE   EBP CYP51A1 DHCR7 CYP27B1 DHCR24 HSD17B7 MSMO1
#>    <chr>  <dbl> <dbl> <dbl> <dbl>   <dbl> <dbl>   <dbl>  <dbl>   <dbl> <dbl>
#>  1 T2110…  5.37  9.77  7.74  4.68    8.27  8.32    6.78   4.70    7.63  7.60
#>  2 T2110…  5.52  9.78  8.06  5.12    8.21  8.33    6.47   5.06    7.63  7.33
#>  3 T2110…  5.89  8.11  7.00  5.78    8.20  8.39    6.57   4.89    8.15  7.61
#>  4 T2110…  5.62  8.67  8.59  5.64    8.07  8.64    6.47   4.98    8.13  5.56
#>  5 T2110…  5.49  9.83  8.13  5.73    9.38  8.15    6.43   5.03    7.70  6.30
#>  6 T2110…  5.58  9.85  8.55  5.13    9.40  8.71    6.56   4.87    7.75  7.77
#>  7 T2110…  5.32 10.0   6.99  5.86    8.08  9.25    6.86   4.72    7.88  6.97
#>  8 T2110…  5.49  9.72  7.47  5.16    6.67  7.37    6.70   4.92    7.50  5.48
#>  9 T2110…  5.57  9.88  7.97  5.40    7.91  8.06    6.58   5.06    8.16  7.06
#> 10 T2110…  5.16  9.87  7.42  5.50    7.43  8.68    6.55   4.85    8.20  6.15
#> # … with 26 more rows, and 7 more variables: FDFT1 <dbl>, SC5DL <dbl>,
#> #   LIPA <dbl>, CEL <dbl>, TM7SF2 <dbl>, NSDHL <dbl>, SOAT2 <dbl>
2.3 Import Phenotype Info

Use the read_csv function to import the phenotype data. Once again, the read_csv function displays a message informing us of the types of data in each column. The following phenotype dataset for subject survival information contains the subject ID (Sample), survival time after disease onset in months (eventTime), and a logical (or binary) variable indicating if the subject died (TRUE or 1) or was lost to follow up (eventObserved; 0 or FALSE).

pInfo_path <- system.file("extdata", "ex_pInfo_subset.csv",
                          package = "pathwayPCA", mustWork = TRUE)
pInfo_df <- read_csv(pInfo_path)
#> Parsed with column specification:
#> cols(
#>   Sample = col_character(),
#>   eventTime = col_double(),
#>   eventObserved = col_logical()
#> )
pInfo_df
#> # A tibble: 36 x 3
#>    Sample    eventTime eventObserved
#>    <chr>         <dbl> <lgl>        
#>  1 T21101311     14.2  TRUE         
#>  2 T21101312      1    TRUE         
#>  3 T21101313      6.75 FALSE        
#>  4 T21101314      8.5  TRUE         
#>  5 T21101315      7.25 FALSE        
#>  6 T21101316      5    TRUE         
#>  7 T21101317     20    TRUE         
#>  8 T21101318     13.2  FALSE        
#>  9 T21101319      7.75 FALSE        
#> 10 T21101320      9    FALSE        
#> # … with 26 more rows

2.4 Match the Phenotype and Assay Data

Now that you have the assay data in tidy form (assayT_df) and the phenotype data (pInfo_df), you can use the inner_join function from the dplyr package to match the assay measurements to phenotype information by subject identifier.

exSurv_df <- inner_join(pInfo_df, assayT_df, by = "Sample")
exSurv_df
#> # A tibble: 36 x 20
#>    Sample eventTime eventObserved SOAT1   LSS  SQLE   EBP CYP51A1 DHCR7 CYP27B1
#>    <chr>      <dbl> <lgl>         <dbl> <dbl> <dbl> <dbl>   <dbl> <dbl>   <dbl>
#>  1 T2110…     14.2  TRUE           5.37  9.77  7.74  4.68    8.27  8.32    6.78
#>  2 T2110…      1    TRUE           5.52  9.78  8.06  5.12    8.21  8.33    6.47
#>  3 T2110…      6.75 FALSE          5.89  8.11  7.00  5.78    8.20  8.39    6.57
#>  4 T2110…      8.5  TRUE           5.62  8.67  8.59  5.64    8.07  8.64    6.47
#>  5 T2110…      7.25 FALSE          5.49  9.83  8.13  5.73    9.38  8.15    6.43
#>  6 T2110…      5    TRUE           5.58  9.85  8.55  5.13    9.40  8.71    6.56
#>  7 T2110…     20    TRUE           5.32 10.0   6.99  5.86    8.08  9.25    6.86
#>  8 T2110…     13.2  FALSE          5.49  9.72  7.47  5.16    6.67  7.37    6.70
#>  9 T2110…      7.75 FALSE          5.57  9.88  7.97  5.40    7.91  8.06    6.58
#> 10 T2110…      9    FALSE          5.16  9.87  7.42  5.50    7.43  8.68    6.55
#> # … with 26 more rows, and 10 more variables: DHCR24 <dbl>, HSD17B7 <dbl>,
#> #   MSMO1 <dbl>, FDFT1 <dbl>, SC5DL <dbl>, LIPA <dbl>, CEL <dbl>, TM7SF2 <dbl>,
#> #   NSDHL <dbl>, SOAT2 <dbl>
…
3.3 Detailed Object Views

Because the printing procedure for Omics objects is to show a summary of the contents, you need to use the get*() functions to view the individual components of the colon_OmicsSurv object we just created. Overall, you can use accessor functions to extract, edit, or replace data contained in the object. The accessor functions are listed in more detail in the Table of Accessors subsection of Chapter 3. Use these functions to confirm that the data object you created accurately reflects the data you intend to analyze.

3.3.1 View the Assay

getAssay(colon_OmicsSurv)
#> # A tibble: 250 x 656
#>       JUN    SOS2   PAK3    RAF1  PRKCB    BTC     SHC1   PRKCA   ELK1    NRG1
#>     <dbl>   <dbl>  <dbl>   <dbl>  <dbl>  <dbl>    <dbl>   <dbl>  <dbl>   <dbl>
#>  1 -0.880  0.367   1.30   0.480  -0.867 -0.790 -2.84e-1  0.0104  1.04   0.670 
#>  2 -1.11   2.15    1.62   0.165   0.547 -0.261 -4.91e-4  1.18    1.49   1.30  
#>  3 -0.752  0.764   0.330 -0.541   0.164  0.452  6.91e-1 -0.950   0.667  0.128 
#>  4  1.03  -0.751   2.75  -0.878  -1.09  -0.481 -1.34e+0  1.52    2.23   3.65  
#>  5 -1.73   0.613   2.66   0.550   0.197 -1.02   1.56e-1 -1.29    1.68  -2.15  
#>  6 -0.162  0.126  -0.324  0.627  -0.106 -1.17   1.11e+0 -1.27    0.964  1.79  
#>  7 -0.980 -0.520   1.28  -0.343  -0.762 -0.489 -2.57e-1  0.0518  1.21  -0.312 
#>  8  0.616  0.0633  0.343 -0.0195  0.578 -1.37   6.38e-1  1.37    1.05  -0.703 
#>  9  1.35  -0.467  -0.149 -0.718  -0.898  0.527 -6.04e-2  1.32   -1.000 -0.266 
#> 10 -0.538  0.413  -0.503 -1.27   -0.466  0.178  3.45e-1 -1.40   -0.378  0.0623
#> # … with 240 more rows, and 646 more variables: PAK2 <dbl>, MTOR <dbl>,
#> #   PAK4 <dbl>, MAP2K4 <dbl>, EIF4EBP1 <dbl>, BAD <dbl>, PRKCG <dbl>,
#> #   NRG3 <dbl>, MAPK9 <dbl>, ERBB4 <dbl>, MAPK10 <dbl>, PTK2 <dbl>,
#> #   ERBB2 <dbl>, ERBB3 <dbl>, MAP2K2 <dbl>, TGFA <dbl>, BRAF <dbl>,
#> #   MAP2K1 <dbl>, MAP2K7 <dbl>, ABL1 <dbl>, NRG2 <dbl>, AKT1 <dbl>, ABL2 <dbl>,
#> #   AKT2 <dbl>, SHC4 <dbl>, RPS6KB1 <dbl>, RPS6KB2 <dbl>, AKT3 <dbl>,
#> #   NRAS <dbl>, GRB2 <dbl>, AREG <dbl>, STAT5B <dbl>, MAPK3 <dbl>,
#> #   STAT5A <dbl>, PAK6 <dbl>, SOS1 <dbl>, MYC <dbl>, MAPK1 <dbl>, NCK1 <dbl>,
#> #   PIK3R5 <dbl>, NRG4 <dbl>, HRAS <dbl>, MAPK8 <dbl>, EGFR <dbl>, GSK3B <dbl>,
…
In order to take advantage of the publication-quality graphics created with the ggplot2 package, we first need to tidy the data frames returned by the AESPCA_pVals and SuperPCA_pVals functions. The following code takes in the \(p\)-values data frame from the Supervised PCA method, modifies it to be compatible with the ggplot function, and saves the new data frame (colonOutGather_df).

colonOutGather_df <-
  getPathpVals(colon_superpcOut) %>%
  gather(variable, value, -terms) %>%
  mutate(score = -log(value)) %>%
  mutate(variable = factor(variable)) %>% 
  mutate(variable = recode_factor(variable,
                                  rawp = "None",
                                  FDR_BH = "FDR"))

graphMax <- ceiling(max(colonOutGather_df$score))

colonOutGather_df
#> # A tibble: 30 x 4
#>    terms                                        variable   value score
#>    <chr>                                        <fct>      <dbl> <dbl>
#>  1 KEGG_ERBB_SIGNALING_PATHWAY                  None     0.00575  5.16
#>  2 PID_EPHB_FWD_PATHWAY                         None     0.0107   4.54
#>  3 REACTOME_INSULIN_RECEPTOR_SIGNALLING_CASCADE None     0.0112   4.49
#>  4 REACTOME_SIGNALING_BY_INSULIN_RECEPTOR       None     0.0124   4.39
#>  5 PID_TNF_PATHWAY                              None     0.0146   4.23
#>  6 KEGG_NON_SMALL_CELL_LUNG_CANCER              None     0.0190   3.96
#>  7 REACTOME_PHOSPHOLIPID_METABOLISM             None     0.0228   3.78
#>  8 BIOCARTA_TNFR1_PATHWAY                       None     0.0514   2.97
#>  9 KEGG_ASTHMA                                  None     0.0665   2.71
#> 10 ST_GA12_PATHWAY                              None     0.0984   2.32
#> # … with 20 more rows
…
