…
  getAssay(colon_Omics)
#> # A tibble: 250 x 656
#>       JUN    SOS2   PAK3    RAF1  PRKCB    BTC     SHC1   PRKCA   ELK1    NRG1
#>     <dbl>   <dbl>  <dbl>   <dbl>  <dbl>  <dbl>    <dbl>   <dbl>  <dbl>   <dbl>
#>  1 -0.880  0.367   1.30   0.480  -0.867 -0.790 -2.84e-1  0.0104  1.04   0.670 
#>  2 -1.11   2.15    1.62   0.165   0.547 -0.261 -4.91e-4  1.18    1.49   1.30  
#>  3 -0.752  0.764   0.330 -0.541   0.164  0.452  6.91e-1 -0.950   0.667  0.128 
#>  4  1.03  -0.751   2.75  -0.878  -1.09  -0.481 -1.34e+0  1.52    2.23   3.65  
#>  5 -1.73   0.613   2.66   0.550   0.197 -1.02   1.56e-1 -1.29    1.68  -2.15  
#>  6 -0.162  0.126  -0.324  0.627  -0.106 -1.17   1.11e+0 -1.27    0.964  1.79  
#>  7 -0.980 -0.520   1.28  -0.343  -0.762 -0.489 -2.57e-1  0.0518  1.21  -0.312 
#>  8  0.616  0.0633  0.343 -0.0195  0.578 -1.37   6.38e-1  1.37    1.05  -0.703 
#>  9  1.35  -0.467  -0.149 -0.718  -0.898  0.527 -6.04e-2  1.32   -1.000 -0.266 
#> 10 -0.538  0.413  -0.503 -1.27   -0.466  0.178  3.45e-1 -1.40   -0.378  0.0623
#> # ... with 240 more rows, and 646 more variables: PAK2 <dbl>, MTOR <dbl>,
#> #   PAK4 <dbl>, MAP2K4 <dbl>, EIF4EBP1 <dbl>, BAD <dbl>, PRKCG <dbl>,
#> #   NRG3 <dbl>, MAPK9 <dbl>, ERBB4 <dbl>, MAPK10 <dbl>, PTK2 <dbl>,
#> #   ERBB2 <dbl>, ERBB3 <dbl>, MAP2K2 <dbl>, TGFA <dbl>, BRAF <dbl>,
#> #   MAP2K1 <dbl>, MAP2K7 <dbl>, ABL1 <dbl>, NRG2 <dbl>, AKT1 <dbl>, ABL2 <dbl>,
#> #   AKT2 <dbl>, SHC4 <dbl>, RPS6KB1 <dbl>, RPS6KB2 <dbl>, AKT3 <dbl>,
#> #   NRAS <dbl>, GRB2 <dbl>, AREG <dbl>, STAT5B <dbl>, MAPK3 <dbl>,
#> #   STAT5A <dbl>, PAK6 <dbl>, SOS1 <dbl>, MYC <dbl>, MAPK1 <dbl>, NCK1 <dbl>,
#> #   PIK3R5 <dbl>, NRG4 <dbl>, HRAS <dbl>, MAPK8 <dbl>, EGFR <dbl>, GSK3B <dbl>,
…
