…
  ###  Extract PCs and Loadings  ###
  getPathPCLs(
    colon_superpc,
    "KEGG_PENTOSE_PHOSPHATE_PATHWAY"
  )
#> $PCs
#> # A tibble: 250 x 3
#>    sampleID       V1      V2
#>    <chr>       <dbl>   <dbl>
#>  1 subj1     0.0404   0.0457
#>  2 subj2     0.129   -0.0526
#>  3 subj3    -0.0267   0.0764
#>  4 subj4     0.0385  -0.0676
#>  5 subj5     0.0577  -0.0284
#>  6 subj6     0.00634  0.0518
#>  7 subj7    -0.00680  0.0869
#>  8 subj8     0.0367  -0.0246
#>  9 subj9    -0.00828 -0.0105
#> 10 subj10   -0.109   -0.0215
#> # … with 240 more rows
…
