Calculate Test Data PCs from Training-Data Estimated Loadings — LoadOntoPCs • pathwayPCA
…
  ###  Project Data onto Pathway First PCs  ###
  LoadOntoPCs(
    design_df = colonSurv_df,
    loadings_ls = colonSurv_aespc$loadings_ls
  )
#> # A tibble: 250 x 16
#>    SampleID pathway757 pathway491 pathway781 pathway1211 pathway536 pathway60
#>    <chr>         <dbl>      <dbl>      <dbl>       <dbl>      <dbl>     <dbl>
#>  1 subj1          3.82      -21.0       15.3       1.86        15.6      26.9
#>  2 subj2          3.00      -20.8       15.8       0.814       16.0      27.8
#>  3 subj3          2.84      -21.7       17.5       0.896       17.1      25.4
#>  4 subj4          4.68      -19.2       12.1       2.77        14.4      28.0
#>  5 subj5          4.12      -21.4       15.6       2.24        16.9      27.6
#>  6 subj6          3.92      -20.0       14.6       1.85        16.1      26.1
#>  7 subj7          4.50      -19.7       13.9       2.47        14.3      26.8
#>  8 subj8          3.65      -21.2       16.2       1.83        16.1      26.0
#>  9 subj9          3.35      -20.8       15.3       1.39        15.3      25.6
#> 10 subj10         4.58      -20.0       15.4       2.64        15.2      26.2
#> # ... with 240 more rows, and 9 more variables: pathway87 <dbl>,
#> #   pathway3 <dbl>, pathway187 <dbl>, pathway120 <dbl>, pathway413 <dbl>,
#> #   pathway390 <dbl>, pathway266 <dbl>, pathway176 <dbl>, pathway177 <dbl>
…
